%YAML 1.1
%TAG !u! tag:unity3d.com,2011:
--- !u!114 &11400000
MonoBehaviour:
  m_ObjectHideFlags: 0
  m_CorrespondingSourceObject: {fileID: 0}
  m_PrefabInternal: {fileID: 0}
  m_GameObject: {fileID: 0}
  m_Enabled: 1
  m_EditorHideFlags: 0
  m_Script: {fileID: 11500000, guid: daad28344fad7a8468ab8f86ac1c006c, type: 3}
  m_Name: EbonyMaw
  m_EditorClassIdentifier: 
  mesh_ActorMesh: {fileID: 4300004, guid: 21b646112d8ffe847ad0a4ec070389f4, type: 3}
  mat_Materials:
  - {fileID: 2100000, guid: 6acc6af3c4206d8489afb68ff1ffeee9, type: 2}
  - {fileID: 2100000, guid: 7af1b567236477447b0386dea4e993ed, type: 2}
  - {fileID: 2100000, guid: 469689bd740b46b48b246f4417fea769, type: 2}
  - {fileID: 2100000, guid: bc80742c492567749aab97e6c323705e, type: 2}
  - {fileID: 2100000, guid: e00a8bc17bea97e43b498e8ce7091a5c, type: 2}
  - {fileID: 2100000, guid: 999a8cc45b12579499f68164114b07f0, type: 2}
  - {fileID: 2100000, guid: 1a9c263732bf1e24c81e59cb11c03a87, type: 2}
  - {fileID: 2100000, guid: a84232b889c2e30418a8f7050a501786, type: 2}
  - {fileID: 2100000, guid: 646e643d75a2a694a87d97f329a9ad8e, type: 2}
  - {fileID: 2100000, guid: 344dca7b99023a64abd6da308f6c25c0, type: 2}
  - {fileID: 2100000, guid: f1102e949b9af934f91a0bcdb1f48d77, type: 2}
  - {fileID: 2100000, guid: f9b0ad3d5d07c284c98c9eeac17ab08b, type: 2}
  - {fileID: 2100000, guid: 252c6c94e5077684495b41f69d86ad66, type: 2}
  mPlayerAnimator: {fileID: 9100000, guid: abd1b5bde6e3f164f9eef4c1d2e42699, type: 2}
  mRunAnimation: {fileID: 7400000, guid: 8f6da9cbb6391e446b90a21a995bdf56, type: 2}
